{
   "data": [
      {
         "name": "Bella Greeting Card",
         "img": "https://ih1.redbubble.net/image.686458822.5268/papergc,500x,w,f8f8f8-pad,1000x1000,f8f8f8.u4.jpg",
         "price": 3.05,
         "article": 101,
         "color": "multicolor"
      },
      {
         "name": "Jack Russell iPhone Case",
         "img": "https://ih1.redbubble.net/image.906673054.7148/icr,iphone_13_soft,back,a,x1000-pad,1000x1000,f8f8f8.jpg",
         "price": 21.17,
         "article": 102,
         "color": "black"
      },
      {
         "name": "Pocket Cute Jack Russell Terrier Essential T-Shirt",
         "img": "https://ih1.redbubble.net/image.541288672.9143/ssrco,slim_fit_t_shirt,two_model,e0e1dd:064437a66d,front,square_three_quarter,1000x1000.u2.jpg",
         "price": 19.92,
         "article": 103,
         "color": "light grey"
      },
      {
         "name": "Bella Greeting Card",
         "img": "https://ih1.redbubble.net/image.686458822.5268/papergc,500x,w,f8f8f8-pad,1000x1000,f8f8f8.u4.jpg",
         "price": 3.05,
         "article": 104,
         "color": "multicolor"
      },
      {
         "name": "Bella Greeting Card",

         "price": 3.05,
         "article": 105,
         "color": "multicolor"
      },
      {
         "name": "Bella Greeting Card",
         "img": "https://ih1.redbubble.net/image.686458822.5268/papergc,500x,w,f8f8f8-pad,1000x1000,f8f8f8.u4.jpg",
         "price": 3.05,
         "article": 106,
         "color": "multicolor"
      },
      {
         "name": "Bella Greeting Card",
         "img": "https://ih1.redbubble.net/image.686458822.5268/papergc,500x,w,f8f8f8-pad,1000x1000,f8f8f8.u4.jpg",
         "price": 3.05,
         "article": 107,
         "color": "multicolor"
      },
      {
         "name": "Bella Greeting Card",
         "img": "https://ih1.redbubble.net/image.686458822.5268/papergc,500x,w,f8f8f8-pad,1000x1000,f8f8f8.u4.jpg",
         "price": 3.05,
         "article": 108,
         "color": "multicolor"
      },
      {
         "name": "Bella Greeting Card",
         "img": "https://ih1.redbubble.net/image.686458822.5268/papergc,500x,w,f8f8f8-pad,1000x1000,f8f8f8.u4.jpg",
         "price": 3.05,
         "article": 109,
         "color": "multicolor"
      },
      {
         "name": "Bella Greeting Card",
         "img": "https://ih1.redbubble.net/image.686458822.5268/papergc,500x,w,f8f8f8-pad,1000x1000,f8f8f8.u4.jpg",
         "price": 3.05,
         "article": 110,
         "color": "multicolor"
      }
   ]
}